<?xml version="1.0" encoding="utf-8"?>
<!-- Generator: Adobe Illustrator 17.0.0, SVG Export Plug-In . SVG Version: 6.00 Build 0)  -->
<!DOCTYPE svg PUBLIC "-//W3C//DTD SVG 1.1//EN" "http://www.w3.org/Graphics/SVG/1.1/DTD/svg11.dtd">
<svg version="1.1" id="Capa_1" xmlns="http://www.w3.org/2000/svg" xmlns:xlink="http://www.w3.org/1999/xlink" x="0px" y="0px"
	 width="600px" height="400px" viewBox="0 0 600 400" enable-background="new 0 0 600 400" xml:space="preserve">
<g>
	<rect x="38.916" y="50.48" fill="#BFDDEB" width="525.628" height="285.575"/>
	<path fill="#1372A2" d="M463.953,171.724c-17.182,0-31.285,13.149-31.285,29.509c0,16.207,13.94,29.509,31.285,29.509
		c17.182,0,31.285-13.149,31.285-29.509S481.136,171.724,463.953,171.724z M136.19,171.724c-17.182,0-31.285,13.149-31.285,29.509
		c0,16.207,13.94,29.509,31.285,29.509c17.182,0,31.285-13.149,31.285-29.509S153.373,171.724,136.19,171.724z M596.874,76.469
		v249.527c0,26.757-23.018,48.468-51.385,48.468H54.817c-28.367,0-51.385-21.711-51.385-48.468V76.469
		c0-26.757,23.018-48.468,51.385-48.468h490.672C573.694,27.848,596.874,49.712,596.874,76.469z M552.945,128.912
		c-4.052,0.917-8.429,1.529-12.806,1.529c-28.691,0-52.034-22.017-52.034-49.08c0-4.128,0.486-8.104,1.621-11.926H107.499
		c0.648,2.905,0.973,5.963,0.973,9.021c0,27.063-23.342,49.08-52.034,49.08c-3.08,0-6.16-0.306-9.078-0.764v149.074
		c2.918-0.459,5.998-0.764,9.078-0.764c28.691,0,52.034,22.017,52.034,49.08c0,3.058-0.324,6.116-0.973,9.021h380.769
		c-0.324-1.988-0.486-3.975-0.486-6.116c0-27.063,23.342-49.08,52.034-49.08c4.377,0,8.753,0.612,12.806,1.529V128.912
		C552.621,128.912,552.945,128.912,552.945,128.912z M412.73,201.233c0,58.712-50.413,106.263-112.658,106.263
		s-112.658-47.551-112.658-106.263S237.826,94.969,300.072,94.969C362.318,94.817,412.73,142.52,412.73,201.233z M289.535,173.558
		c0-3.822,0.973-6.88,2.918-9.327c1.945-2.446,5.025-3.67,9.24-3.67c4.052,0,7.457,1.529,9.888,4.434
		c1.945,2.446,3.08,5.657,3.566,10.091c0.162,1.988,2.107,3.364,4.215,3.364l21.073-0.306c2.269,0,4.215-1.835,4.052-3.975
		c-0.486-8.715-3.566-16.054-8.915-21.864c-5.511-6.116-12.968-10.091-22.207-11.773v-14.984c0-1.835-1.621-3.364-3.566-3.364
		h-12.806c-1.945,0-3.566,1.529-3.566,3.364v14.525c-9.726,1.376-17.669,4.74-23.828,10.244c-6.646,6.116-10.05,13.761-10.05,23.087
		c0,10.397,3.08,18.195,9.402,23.546c6.322,5.351,16.372,10.55,30.312,15.901c5.673,2.293,9.726,4.74,11.833,7.033
		c2.269,2.446,3.404,5.81,3.404,10.244c0,3.822-1.135,6.88-3.242,9.174c-2.107,2.293-5.349,3.517-9.564,3.517
		c-5.025,0-9.078-1.529-12.319-4.587c-2.594-2.446-4.215-6.269-4.539-11.314c-0.162-1.988-2.107-3.517-4.215-3.364l-21.073,0.306
		c-2.269,0-4.215,1.835-4.052,3.975c0.486,10.55,4.215,18.653,10.861,24.463c7.294,6.269,16.372,9.938,27.07,11.161v13.608
		c0,1.835,1.621,3.364,3.566,3.364h12.806c1.945,0,3.566-1.529,3.566-3.364v-14.066c8.753-1.529,15.724-4.74,21.235-9.785
		c6.484-5.81,9.726-13.608,9.726-23.24c0-10.091-3.242-17.889-9.564-23.393c-6.484-5.504-16.372-10.856-29.988-16.36
		c-5.836-2.446-9.888-4.893-11.995-7.186C290.508,180.439,289.535,177.381,289.535,173.558z"/>
</g>
</svg>
