<?xml version="1.0" encoding="utf-8"?>
<!-- Generator: Adobe Illustrator 17.0.0, SVG Export Plug-In . SVG Version: 6.00 Build 0)  -->
<!DOCTYPE svg PUBLIC "-//W3C//DTD SVG 1.1//EN" "http://www.w3.org/Graphics/SVG/1.1/DTD/svg11.dtd">
<svg version="1.1" id="Capa_1" xmlns="http://www.w3.org/2000/svg" xmlns:xlink="http://www.w3.org/1999/xlink" x="0px" y="0px"
	 width="512px" height="512px" viewBox="0 0 512 512" enable-background="new 0 0 512 512" xml:space="preserve">
<circle fill="#B3DBEB" stroke="#1373A2" stroke-width="39" stroke-miterlimit="10" cx="188.505" cy="187.933" r="165.733"/>
<line fill="none" stroke="#1373A2" stroke-width="80" stroke-miterlimit="10" x1="296.15" y1="302.186" x2="481.461" y2="487.496"/>
</svg>
