<?xml version="1.0" encoding="utf-8"?>
<!-- Generator: Adobe Illustrator 17.0.0, SVG Export Plug-In . SVG Version: 6.00 Build 0)  -->
<!DOCTYPE svg PUBLIC "-//W3C//DTD SVG 1.1//EN" "http://www.w3.org/Graphics/SVG/1.1/DTD/svg11.dtd">
<svg version="1.1" id="Capa_1" xmlns="http://www.w3.org/2000/svg" xmlns:xlink="http://www.w3.org/1999/xlink" x="0px" y="0px"
	 width="800px" height="500px" viewBox="0 0 800 500" enable-background="new 0 0 800 500" xml:space="preserve">
<rect x="279" y="3" fill="#002970" width="229" height="501"/>
<rect y="132" fill="#002970" width="800" height="197"/>
<text transform="matrix(1.1505 0 0 1 21.7411 270.9629)" display="none" fill="#00BBC5" enable-background="new    " font-family="'CenturyGothic'" font-size="107.2839">CE</text>
<text transform="matrix(1.1262 0 0 1 610.4325 276.127)" display="none" fill="#00BBC5" enable-background="new    " font-family="'CenturyGothic'" font-size="111.3086">BA</text>
<text transform="matrix(1.2311 0 0 1 173.9584 323.3154)" display="none" fill="#FFFFFF" enable-background="new    " font-family="'CenturyGothic-Bold'" font-size="265.7146">M</text>
<text transform="matrix(1.2311 0 0 1 173.9584 323.3154)" display="none" fill="none" stroke="#FFFFFF" stroke-width="10" stroke-miterlimit="10" enable-background="new    " font-family="'CenturyGothic-Bold'" font-size="265.7146">M</text>
<text transform="matrix(1.2891 0 0 1 441.7929 322.7051)" display="none" fill="#FFFFFF" enable-background="new    " font-family="'CenturyGothic-Bold'" font-size="267.7305">E</text>
<text transform="matrix(1.2891 0 0 1 441.793 322.7031)" display="none" fill="none" stroke="#FFFFFF" stroke-width="10" stroke-miterlimit="10" enable-background="new    " font-family="'CenturyGothic-Bold'" font-size="267.7305">E</text>
<g>
	<path fill="#00BBC5" d="M132.634,194.134c16.704,0,33.302,0,50.113,0c0,2.285,0.016,4.533-0.028,6.78
		c-0.004,0.201-0.372,0.495-0.62,0.567c-0.344,0.099-0.735,0.031-1.106,0.031c-12.654,0-25.307,0-37.961,0c-0.526,0-1.053,0-1.674,0
		c0,8.21,0,16.283,0,24.555c0.552,0,1.07,0,1.589,0c12.654,0,25.307,0.017,37.96-0.027c1.205-0.004,1.585,0.339,1.508,1.55
		c-0.097,1.505-0.085,3.024-0.003,4.53c0.06,1.106-0.297,1.414-1.391,1.41c-10.922-0.042-21.845-0.025-32.767-0.025
		c-2.26,0-4.52,0-6.885,0c0,10.204,0,20.292,0,30.6c0.518,0,1.033,0,1.549,0c12.654,0,25.307,0.016,37.961-0.026
		c1.164-0.004,1.621,0.264,1.539,1.517c-0.103,1.588-0.056,3.189-0.014,4.783c0.022,0.834-0.205,1.181-1.105,1.18
		c-15.951-0.024-31.902-0.017-47.853-0.021c-0.24,0-0.48-0.052-0.812-0.091C132.634,245.672,132.634,219.933,132.634,194.134z"/>
	<path fill="#00BBC5" d="M114.343,207.449c-2.327,1.607-4.541,3.136-6.666,4.603c-2.076-1.852-3.969-3.758-6.071-5.375
		c-6.112-4.704-13.084-7.089-20.622-7.832c-8.515-0.838-16.695,0.384-24.409,4.328c-8.801,4.5-15.234,11.217-17.81,21.247
		c-3.435,13.375,1.549,26.458,12.897,34.487c6.108,4.322,12.889,6.531,20.217,7.178c7.511,0.663,14.81-0.145,21.823-3.121
		c4.867-2.065,9.137-5.074,12.921-8.84c0.265-0.264,0.535-0.523,0.886-0.865c2.239,1.527,4.462,3.043,6.914,4.715
		c-1.202,1.21-2.244,2.341-3.368,3.376c-6.543,6.025-14.218,9.695-22.775,11.339c-11.226,2.157-22.362,1.763-33.131-2.407
		c-11.181-4.329-19.648-11.978-23.938-23.66c-5.831-15.877-2.46-33.416,12.559-45.194c7.361-5.773,15.66-8.955,24.792-9.976
		c9.477-1.06,18.766-0.311,27.759,3.138c6.559,2.515,12.328,6.291,17.051,11.687C113.646,206.592,113.906,206.922,114.343,207.449z"
		/>
	<path fill="#00BBC5" d="M620.955,196.661c11.057,0.496,22.004-1.137,32.726,1.571c11.425,2.886,17.638,13.438,14.153,23.672
		c-1.414,4.152-4.212,7.217-7.917,9.568c-0.777,0.493-1.571,0.96-2.681,1.636c2.503,1.015,4.741,1.798,6.868,2.804
		c13.856,6.55,16.418,22.757,5.29,33.164c-4.238,3.963-9.359,6.624-15.073,6.996c-11.018,0.718-22.087,0.706-33.365,1.003
		C620.955,250.03,620.955,223.503,620.955,196.661z M629.711,253.433c0,4.427,0.061,8.855-0.03,13.281
		c-0.036,1.727,0.541,2.361,2.356,2.316c4.63-0.115,9.272,0.077,13.895-0.136c4.535-0.21,9.053-0.681,13.155-2.946
		c9.813-5.42,10.406-17.399,0.943-23.349c-2.528-1.59-5.556-2.958-8.491-3.295c-6.618-0.76-13.322-0.8-19.989-1.162
		c-1.552-0.084-1.858,0.728-1.849,2.01C629.735,244.578,629.714,249.006,629.711,253.433z M629.713,217.513
		c0,3.591-0.08,7.184,0.069,10.769c0.029,0.701,0.984,1.985,1.446,1.957c5.961-0.361,12.026-0.377,17.829-1.568
		c5.57-1.143,9.242-5.09,10.116-10.789c1.013-6.606-3.5-11.797-11.434-12.726c-5.336-0.625-10.772-0.433-16.161-0.651
		c-1.524-0.062-1.892,0.68-1.877,1.986C629.741,210.165,629.714,213.839,629.713,217.513z"/>
	<path fill="#00BBC5" d="M774.407,279.064c-3.102,0-5.756,0.156-8.374-0.087c-0.883-0.082-1.992-0.999-2.453-1.834
		c-4.298-7.8-8.521-15.643-12.653-23.533c-0.809-1.545-1.735-2.136-3.478-2.126c-12.267,0.067-24.535,0.075-36.803-0.007
		c-1.858-0.012-2.842,0.623-3.684,2.242c-4.028,7.745-8.207,15.411-12.25,23.149c-0.829,1.587-1.777,2.381-3.672,2.243
		c-2.451-0.178-4.924-0.043-7.71-0.043c0.351-0.863,0.547-1.502,0.855-2.082c14.14-26.638,28.279-53.276,42.482-79.88
		c0.544-1.019,1.719-1.7,2.6-2.539c0.781,0.838,1.794,1.555,2.31,2.533c13.938,26.445,27.826,52.917,41.713,79.389
		C773.651,277.171,773.91,277.907,774.407,279.064z M729.137,212.189c-5.612,10.548-10.943,20.566-16.446,30.909
		c11.141,0,21.722,0,32.81,0C740.023,232.752,734.738,222.768,729.137,212.189z"/>
</g>
<path fill="#FFFFFF" d="M611.432,130.427c-1.191-0.309-2.381-0.887-3.572-0.888c-47.036-0.046-94.072-0.039-141.108-0.039
	c0.138,1.988,0.395,3.976,0.396,5.964c0.036,62.359,0.047,124.718,0.057,187.077c0,0.453-0.054,0.906-0.168,2.702
	c-0.636-2.001-0.987-2.824-1.159-3.685c-12.559-62.971-25.103-125.945-37.655-188.918c-0.211-1.057-0.509-2.094-0.767-3.141h-52.692
	c-10.949,27.331-21.909,54.657-32.844,81.994c-4.898,12.245-9.744,24.513-14.628,36.765c-0.433,1.086-0.974,2.125-1.868,4.056
	c-16.1-41.022-31.857-81.171-47.622-121.339c0.119-0.03,0.225-0.057,0.341-0.086c-0.233-0.433-0.389-0.903-0.491-1.389
	c-18.142,0-36.283,0.001-54.425,0.009c-0.052,0.301-0.144,0.607-0.275,0.916h0.391c-1.119,5.638-2.105,10.733-3.144,15.816
	c-12.19,59.647-24.387,119.293-36.598,178.936c-0.181,0.882-0.563,1.719-0.852,2.577v4.632h92.569
	c-0.051-0.234-0.093-0.468-0.117-0.705c-11.407-0.038-22.814-0.025-34.222-0.025h-5.191c7.588-37.009,15.056-73.438,22.525-109.867
	l0.911-0.097c3.4,8.614,6.805,17.225,10.198,25.842c10.4,26.413,20.853,52.805,31.123,79.272c1.31,3.375,2.937,4.632,6.523,4.556
	c12.048-0.256,24.108-0.251,36.156-0.005c3.704,0.075,5.442-1.168,6.852-4.748c13.273-33.693,26.743-67.302,40.165-100.931
	c0.558-1.397,1.198-2.76,2.268-5.211c2.53,12.543,4.843,23.985,7.144,35.429c4.797,23.852,9.636,47.695,14.326,71.57
	c0.605,3.079,1.979,3.88,4.834,3.856c14.88-0.124,29.761,0,44.641-0.068c46.999-0.215,93.997-0.478,140.996-0.72
	c1.897-0.01,3.794-0.001,6-0.001v-46.743h-86.607v-41.789h86.501v-46.973h-5.309c-25.595,0-51.19-0.079-76.784,0.086
	c-3.76,0.024-4.879-1.14-4.728-4.956c0.267-6.729,0.075-13.478,0.075-20.718h87.167c0-9.09-0.07-17.678,0.03-26.264
	C610.847,138.925,611.21,134.677,611.432,130.427z"/>
</svg>
