<?xml version="1.0" encoding="utf-8"?>
<!-- Generator: Adobe Illustrator 17.0.0, SVG Export Plug-In . SVG Version: 6.00 Build 0)  -->
<!DOCTYPE svg PUBLIC "-//W3C//DTD SVG 1.1//EN" "http://www.w3.org/Graphics/SVG/1.1/DTD/svg11.dtd">
<svg version="1.1" id="Capa_1" xmlns="http://www.w3.org/2000/svg" xmlns:xlink="http://www.w3.org/1999/xlink" x="0px" y="0px"
	 width="512px" height="512px" viewBox="0 0 512 512" enable-background="new 0 0 512 512" xml:space="preserve">
<polygon fill="#0474A4" points="415.61,215 94.724,215 28.333,1 482,1 "/>
<polygon fill="#0474A4" points="415.912,215 95.422,215 31,426 480.333,426 "/>
<polygon fill="#B2DBEB" points="391.667,228 118.333,228 65,395 445,395 "/>
<polygon fill="#0474A4" points="330.909,262 177.591,262 133.5,351 375,351 "/>
<polygon fill="#B2DBEB" points="315.595,284 195.405,284 174,328 337,328 "/>
<path fill="#0474A4" d="M479.917,425.001L31,426v52.019c2.575,1.239,3.254,4.636,2.041,7.019c0.016,0.062,0.035,0.128,0.058,0.195
	c0.082,0.191,0.136,0.39,0.162,0.597c0.128,0.664,0.168,1.299,0.115,1.918c0.032,0.083,0.055,0.168,0.082,0.252h444.166
	c0.022-0.067,0.028-0.138,0.054-0.204c0.141-0.352,0.242-0.709,0.331-1.068c-0.2-0.982-0.071-2.07,0.541-3.187
	c0.019-0.088,0.047-0.208,0.093-0.393c-0.165,0.373-0.191,0.166-0.078-0.621c-0.022-0.766-0.031-1.53-0.036-2.297
	c-0.009-1.315,0.016-2.664-0.196-3.964c-0.333-2.042,0.225-4.076,1.753-5.281l0.238-44.99
	C480.155,425.681,480.018,425.35,479.917,425.001z"/>
<g>
	<path fill="#0474A4" d="M480,476c0,18.778-15.222,34-34,34H65c-18.778,0-34-15.222-34-34v-14c0-18.778,15.222-34,34-34h381
		c18.778,0,34,15.222,34,34V476z"/>
</g>
<path fill="#B2DBEB" d="M426,453c0,6.627-5.373,12-12,12h-1c-6.627,0-12-5.373-12-12v-1c0-6.627,5.373-12,12-12h1
	c6.627,0,12,5.373,12,12V453z"/>
<path fill="#B2DBEB" d="M391,453c0,6.627-5.373,12-12,12h-1c-6.627,0-12-5.373-12-12v-1c0-6.627,5.373-12,12-12h1
	c6.627,0,12,5.373,12,12V453z"/>
</svg>
