<?xml version="1.0" encoding="utf-8"?>
<!-- Generator: Adobe Illustrator 17.0.0, SVG Export Plug-In . SVG Version: 6.00 Build 0)  -->
<!DOCTYPE svg PUBLIC "-//W3C//DTD SVG 1.1//EN" "http://www.w3.org/Graphics/SVG/1.1/DTD/svg11.dtd">
<svg version="1.1" id="Capa_1" xmlns="http://www.w3.org/2000/svg" xmlns:xlink="http://www.w3.org/1999/xlink" x="0px" y="0px"
	 width="800px" height="500px" viewBox="0 0 800 500" enable-background="new 0 0 800 500" xml:space="preserve">
<g>
	<path fill="#19468B" d="M399.444,51.664c-34.956,6.942-66.05,9.68-94.708,19.398c-128.893,43.71-160.762,192.98-58.787,281.86
		c31.996,27.888,72.8,46.053,109.973,68.009c10.599,6.26,22.606,10.201,39.386,17.593c-10.097,5.386-15.849,11.091-19.437,9.984
		c-95.794-29.559-192.301-60.758-262.593-135.143c-28.095-29.731-51.266-71.439-58.889-111.023
		C36.459,109.223,90.468,43.53,197.288,15.771C269.06-2.88,335.99,8.334,399.444,51.664z"/>
	<path fill="#DA3F2B" d="M394.989,108.466c84.217-53.007,165.954-61.197,250.846-22.412
		c112.488,51.394,139.408,174.94,56.57,266.409c-23.551,26.005-51.566,50.983-82.569,66.906
		c-58.818,30.208-121.177,53.757-182.349,79.413c-7.045,2.955-15.899,1.718-26.647-5.013c7.663-4.485,15.278-9.052,22.997-13.44
		c36.495-20.745,75.9-37.774,108.89-62.971c56.629-43.252,85.189-100.696,66.027-173.362
		c-19.236-72.944-71.152-111.576-142.915-127.12C444.812,112.323,422.92,111.652,394.989,108.466z"/>
</g>
</svg>
