<?xml version="1.0" encoding="utf-8"?>
<!-- Generator: Adobe Illustrator 17.0.0, SVG Export Plug-In . SVG Version: 6.00 Build 0)  -->
<!DOCTYPE svg PUBLIC "-//W3C//DTD SVG 1.1//EN" "http://www.w3.org/Graphics/SVG/1.1/DTD/svg11.dtd">
<svg version="1.1" id="Capa_1" xmlns="http://www.w3.org/2000/svg" xmlns:xlink="http://www.w3.org/1999/xlink" x="0px" y="0px"
	 width="800px" height="360px" viewBox="0 0 800 360" enable-background="new 0 0 800 360" xml:space="preserve">
<g>
	<path d="M687.79,118.09c-1.204,1.094-2.242,2.798-3.64,3.178c-6.753,1.837-13.602,3.318-20.942,5.05
		c-0.122-2.713-0.251-5.57-0.433-9.63c-3.661,1.94-6.931,3.34-9.848,5.273c-14.209,9.412-29.027,4.035-37.156-8.046
		c-7.065-10.5-7.407-22.598-2.834-34.558c6.337-16.576,19.954-22.876,36.188-24.89c4.228-0.525,8.68,0.761,13.579,1.273
		c0-8.97,0.248-18.027-0.237-27.043c-0.084-1.557-3.079-3.387-5.089-4.29c-1.989-0.893-4.433-0.772-8.339-1.336
		c1.706-1.947,2.556-3.876,3.821-4.203c6.935-1.794,13.971-3.195,21.592-4.867c0,2.137,0.002,4.005,0,5.872
		c-0.04,28.698-0.183,57.397-0.06,86.094c0.038,8.763-1.623,8.71,8.515,10.15c1.212,0.172,2.417,0.395,3.625,0.594
		C686.952,117.17,687.371,117.63,687.79,118.09z M663.036,89.959c0-5.979,0.094-11.961-0.062-17.937
		c-0.043-1.63-0.312-3.881-1.375-4.756c-6.697-5.509-14.234-8.401-22.959-5.44c-9.692,3.29-16.456,15.409-16.128,28.178
		c0.262,10.202,7.305,23.813,17.373,26.176c7.271,1.707,13.578-0.084,19.682-3.353c1.582-0.847,3.19-3.186,3.311-4.941
		C663.286,101.936,663.034,95.939,663.036,89.959z"/>
	<path d="M215.174,316.199c0.965,0.363,2.577,0.969,4.725,1.777c-2.64,6.994-5.025,13.867-7.898,20.528
		c-0.711,1.649-2.832,3.345-4.608,3.777c-16.774,4.087-33.717,6.192-50.407,0.039c-17.134-6.317-28.869-17.415-32.547-36.423
		c-1.811-9.356-1.115-18.146,0.799-27.079c2.894-13.506,11.996-22.596,23.278-29.133c19.531-11.316,40.529-11.073,61.788-5.672
		c1.048,0.266,2.56,1.132,2.749,1.968c1.645,7.297,3.038,14.651,4.544,22.181c-2.628,0.556-4.112,0.87-5.841,1.236
		c-1.259-2.912-2.641-5.717-3.706-8.638c-3.613-9.909-12.091-12.836-21.158-14.022c-16.291-2.132-30.248,3.012-40.44,16.079
		c-3.206,4.111-5.608,9.487-6.535,14.616c-2.662,14.731-2.976,29.865,5.324,42.909c11.926,18.742,36.139,26.531,55.383,13.837
		C206.51,330.297,210.003,322.789,215.174,316.199z"/>
	<path d="M679.959,343.807c-12.74,0-23.444,0-34.148,0c-0.354-0.362-0.708-0.724-1.062-1.086c1.08-1.092,1.979-2.785,3.271-3.174
		c6.82-2.054,7.803-3.137,7.822-10.364c0.028-10.042,0.006-20.085,0-30.127c-0.011-17.172-12.802-19.18-24.192-14.334
		c-1.288,0.548-2.482,1.315-3.74,1.939c-4.663,2.312-6.684,5.626-6.38,11.232c0.562,10.364,0.147,20.781,0.173,31.176
		c0.02,8.288,0.35,8.536,8.523,10.474c1.306,0.31,2.301,1.93,3.439,2.944c-0.315,0.422-0.629,0.844-0.944,1.266
		c-11.224,0-22.447,0-33.914,0c-1.148-2.629-0.724-3.826,2.529-4.405c9.304-1.657,9.649-2.267,9.652-11.651
		c0.003-11.099-0.358-22.215,0.143-33.292c0.275-6.069-1.886-9.186-7.585-10.607c-1.382-0.345-2.44-1.991-4.299-3.605
		c8.367-2.435,15.199-4.423,22.438-6.53c0,3.57,0,7.029,0,11.15c6.17-3.416,11.524-7.043,17.372-9.486
		c13.827-5.777,27.244,2.283,28.254,17.254c0.793,11.754,0.31,23.594,0.442,35.394c0.101,9.008,0.16,8.927,8.837,11.652
		C677.675,339.968,678.322,341.705,679.959,343.807z"/>
	<path d="M92.612,124.99c-10.343,0-20.878,0.043-31.411-0.076c-0.91-0.01-1.808-1.092-2.711-1.676
		c0.698-1.01,1.183-2.588,2.128-2.943c9.024-3.394,9.072-3.335,9.085-12.731c0.016-11.094,0.04-22.19-0.058-33.283
		c-0.041-4.641-0.852-8.805-6.882-9.292c-1.006-0.081-1.875-1.867-2.808-2.865c1.072-0.883,2.013-2.213,3.238-2.571
		c5.515-1.609,11.11-2.943,17.104-4.485c0,3.249,0,6.815,0,11.321c4.909-2.858,9.117-5.13,13.144-7.685
		c11.148-7.074,21.845-6.081,29.68,4.281c2.769,3.662,3.432,9.484,3.661,14.385c0.517,11.071,0.118,22.182,0.183,33.276
		c0.044,7.513,0.781,8.137,8.105,9.612c1.474,0.297,2.676,1.948,4.003,2.975c-0.313,0.585-0.626,1.171-0.939,1.756
		c-10.356,0-20.713,0.058-31.067-0.099c-0.927-0.014-1.832-1.42-2.748-2.18c0.728-0.794,1.383-2.192,2.196-2.29
		c8.511-1.032,8.647-4.147,8.73-11.573c0.121-10.734,0.497-21.537-0.486-32.195c-1.237-13.418-10.403-14.852-20.479-12.147
		c-4.376,1.175-8.297,4.269-12.2,6.833c-0.999,0.656-1.597,2.607-1.611,3.971c-0.12,11.798-0.129,23.598-0.034,35.396
		c0.052,6.448,2.234,8.793,8.759,9.48C91.988,120.479,94.297,120.734,92.612,124.99z"/>
	<path d="M406.127,126.799c0-3.857,0-7.224,0-10.748c-4.871,2.614-9.43,4.472-13.323,7.26c-12.337,8.833-31.116,2.231-31.244-18.613
		c-0.064-10.383,0.003-20.767-0.055-31.15c-0.044-7.977-0.639-8.603-8.295-11.012c-1.03-0.324-1.722-1.725-2.571-2.627
		c1.026-0.73,1.982-1.95,3.09-2.11c6.242-0.897,12.52-1.538,19.266-2.323c0,13.835-0.149,27.523,0.091,41.204
		c0.072,4.102,0.962,8.25,1.947,12.261c1.663,6.771,7.501,8.156,13.095,8.212c4.047,0.041,8.376-1.395,12.1-3.175
		c3.746-1.79,6.261-4.696,6.005-9.886c-0.546-11.061-0.141-22.167-0.222-33.254c-0.045-6.098-1.478-7.514-7.732-8.142
		c-0.699-0.07-1.518,0.127-2.084-0.173c-1.373-0.727-2.63-1.674-3.934-2.533c1.369-0.718,2.68-1.895,4.117-2.077
		c6.958-0.88,13.95-1.492,21.669-2.274c0,1.606,0.005,3.27-0.001,4.933c-0.048,14.079-0.116,28.158-0.143,42.237
		c-0.024,12.594-0.005,12.594,13.495,14.605c-1.848,1.951-2.828,3.926-4.249,4.324C420.589,123.576,413.906,124.975,406.127,126.799
		z"/>
	<path d="M586.661,309.134c-0.063,20.643-15.978,37.336-35.849,36.686c-22.39-0.732-34.921-14.923-34.896-34.915
		c0.028-22.358,13.252-36.221,35.175-37.358C570.748,272.527,586.722,289.3,586.661,309.134z M529.846,306.615
		c-1.756,9.306,2.574,17.155,6.468,24.625c3.984,7.641,17.327,12.035,26.398,6.414c6.855-4.248,7.916-10.849,8.784-17.499
		c1.759-13.474,1.273-26.508-9.74-36.79c-6.746-6.298-21.376-5.546-25.809,2.134C532.217,291.96,527.993,298.567,529.846,306.615z"
		/>
	<path d="M489.045,89.658c1.055-21.878,20.336-36.499,38.053-35.306c21.998,1.481,35.195,21.596,33.041,38.661
		c-2.682,21.244-16.843,34.427-37.134,33.824C502.047,126.214,487.624,107.406,489.045,89.658z M547.115,88.629
		c-0.556-0.048-1.113-0.095-1.669-0.143c1.647-10.271-3.847-17.492-10.259-24.192c-6.286-6.567-21.122-5.479-25.726,2.103
		c-3.888,6.403-7.559,13.331-6.316,21.118c1.139,7.131,3.298,14.125,5.351,21.078c1.982,6.712,9.186,11.924,16.353,12.344
		c8.241,0.483,15.403-2.851,17.797-10.068C545.01,103.745,545.694,96.065,547.115,88.629z"/>
	<path d="M230.481,310.061c-2.116-17.959,15.464-35.082,32.011-36.491c23.125-1.969,41.974,18.673,37.508,42.137
		c-2.078,10.917-7.548,18.767-16.219,25.029c-11.599,8.376-32.998,6.169-42.677-4.498
		C231.327,325.461,230.46,323.326,230.481,310.061z M243.204,306.678c0.273,12.42,3.527,22.838,13.804,30.541
		c8.006,6.001,23.293,2.539,26.461-6.83c1.824-5.393,2.94-11.27,3.007-16.945c0.067-5.667-1.66-11.341-2.441-17.034
		c-1.147-8.361-8.903-16.158-17.266-17.18c-8.989-1.099-17.137,3.67-20.044,12.343C245.09,296.453,244.348,301.633,243.204,306.678z
		"/>
	<path d="M436.434,334.539c1.929,2.273,2.231,4.056-1.033,5.599c-2.996,1.416-5.733,3.369-8.66,4.943
		c-3.195,1.719-8.928-0.624-10.179-4.606c-1.474-4.689-3.884-3.937-6.918-1.94c-1.166,0.767-2.317,1.558-3.461,2.358
		c-10.918,7.633-20.139,6.381-28.515-3.878c-4.585-5.616-2.77-19.19,3.649-22.347c8.294-4.078,17.109-7.081,25.61-10.756
		c7.036-3.041,7.855-4.862,6.394-12.226c-0.879-4.43-6.625-10.034-11.093-10.819c-7.866-1.383-11.795,1.622-14.766,11.295
		c-1.641,5.34-4.267,6.415-8.841,3.616c-3.342-2.045-3.916-7.666-0.484-9.508c8.281-4.446,16.603-9.035,25.391-12.251
		c7.722-2.826,17.685,3.844,20.309,12.59c1.093,3.645,1.701,7.548,1.805,11.354c0.257,9.325-0.068,18.666,0.142,27.994
		C426,335.555,427.281,336.463,436.434,334.539z M413.56,306.437c-7.722,3.394-14.739,6.042-21.318,9.518
		c-4.59,2.425-5.743,7.486-3.996,11.903c1.238,3.129,4.263,6.301,7.305,7.803c5.439,2.684,10.553-0.284,15.113-3.346
		c1.317-0.885,2.704-2.756,2.767-4.231C413.724,321.271,413.56,314.439,413.56,306.437z"/>
	<path d="M707.695,86.07c-0.183,12.164,3.736,21.804,13.541,27.438c10.481,6.022,20.576,2.914,29.638-4.798
		c0.95,1.16,1.811,2.211,2.651,3.236c-10.006,13.135-27.289,20.236-43.487,9.836c-10.651-6.839-16.345-21.815-13.879-34.865
		c2.216-11.723,8.219-20.948,18.4-27.665c13.593-8.968,32.588-5.487,39.039,12.481c0.964,2.685,0.991,5.975,0.471,8.806
		c-0.244,1.331-2.746,3.071-4.341,3.199c-12.082,0.976-24.191,1.611-36.294,2.318C711.719,86.157,709.993,86.07,707.695,86.07z
		 M707.353,78.126c0.496,0.41,0.993,0.819,1.489,1.229c9.276,0,18.555,0.154,27.825-0.062c4.939-0.115,6.398-2.204,4.99-6.827
		c-2.792-9.164-14.398-16.532-23.603-9.014C713.518,67.156,710.861,73.161,707.353,78.126z"/>
	<path d="M3.892,124.722c-1.22-3.289-0.453-4.956,3.06-4.837c1.051,0.036,2.118-0.034,3.16-0.182
		c4.774-0.677,8.012-2.37,7.975-8.244c-0.152-24.277,0.208-48.557-0.004-72.833c-0.075-8.571-1.202-9.284-10.054-9.862
		c-3.246-0.212-5.629-0.649-4.322-4.998c14.07,0,28.087,0,42.18,0c1.378,3.652-0.153,4.704-3.52,4.98
		c-9.255,0.759-11.357,2.572-11.472,11.907c-0.275,22.345-0.645,44.716,0.158,67.036c0.384,10.672,1.955,11.786,11.754,12.227
		c3.492,0.157,3.485,0.303,3.032,4.807C31.87,124.722,17.875,124.722,3.892,124.722z"/>
	<path d="M463.761,338.02c26.575,1.529,28.585,1.585,40.053-15.356c1.364,0.518,2.789,1.059,4.305,1.635
		c-0.076,0.624-0.041,1.143-0.208,1.585c-1.719,4.548-3.717,9.008-5.13,13.648c-0.958,3.146-2.267,4.599-5.818,4.556
		c-15.313-0.185-30.631-0.045-45.946-0.137c-1.41-0.008-4.016-0.828-4.013-1.255c0.013-1.712,0.43-3.714,1.425-5.078
		c6.371-8.732,13.173-17.156,19.366-26.009c5.808-8.303,11.068-16.99,16.49-25.558c0.887-1.401,1.366-3.06,2.279-5.165
		c-7.071,0-13.348-0.156-19.613,0.041c-7.119,0.224-11.257,4.86-13.224,10.952c-1.318,4.083-3.208,3.813-6.869,2.609
		c0.761-2.391,1.591-4.618,2.171-6.908c0.947-3.735,1.911-7.482,2.534-11.279c0.628-3.825,1.454-5.586,5.648-2.784
		c2.127,1.421,5.312,1.684,8.03,1.722c12.296,0.171,24.595,0.075,38.011,0.075c-0.644,2.467-0.666,4.615-1.674,6.09
		c-8.822,12.924-17.922,25.658-26.719,38.599C470.933,325.78,467.509,331.899,463.761,338.02z"/>
	<path d="M148.387,104.116c4.423-2.365,5.741-0.972,7.25,2.213c3.458,7.299,7.37,14.4,17.002,15.038
		c5.715,0.378,9.76-2.573,12.021-6.971c1.989-3.87,2.154-8.711-2.353-11.785c-4.549-3.102-9.291-5.919-13.905-8.928
		c-4.215-2.749-8.74-5.174-12.467-8.487c-5.318-4.728-5.194-15.675-0.462-21.341c6.129-7.338,14.199-10.02,23.39-9.487
		c10.821,0.627,11.317,1.22,14.125,11.604c0.275,1.018,0.439,2.096,0.89,3.032c1.745,3.618,0.87,5.631-2.458,5.744
		c-3.496-4.42-6.21-8.92-9.936-12.307c-5.312-4.829-12.932-3.749-16.595,1.555c-4.196,6.075-2.722,12.462,4.216,16.347
		c5.037,2.821,10.418,5.024,15.608,7.577c5.09,2.504,9.446,5.645,11.421,11.436c3.185,9.337-0.76,19.271-9.734,23.68
		c-10.26,5.04-20.623,5.101-31.007,0.462c-1.177-0.526-2.689-1.524-2.985-2.597C150.881,115.371,149.699,109.747,148.387,104.116z"
		/>
	<path d="M344.936,119.345c-4.166,2.083-8.06,4.049-11.971,5.983c-11.031,5.453-22.052-4.3-21.859-15.122
		c0.245-13.715,0.052-27.438,0.048-41.157c-0.001-1.898,0-3.795,0-6.048c-4.21-0.194-7.932-0.366-12.241-0.564
		c2.635-5.457,6.678-6.617,12.155-6.252c-1.734-10.334,3.75-16.369,12.574-22.294c0,8.293,0,15.034,0,22.365
		c6.499,0,12.393,0,18.382,0c1.022,4.356,0.295,6.664-4.271,6.512c-4.385-0.146-8.78-0.032-13.698-0.032
		c-0.143,1.724-0.373,3.223-0.376,4.722c-0.023,13.895-0.017,27.791,0.005,41.686c0.009,5.494,2.122,8.078,7.578,8.451
		c2.721,0.186,5.726-0.058,8.209-1.072C342.576,115.256,344.045,115.861,344.936,119.345z"/>
	<path d="M796.913,124.992c-10.529,0-21.058,0.057-31.585-0.101c-0.915-0.014-1.809-1.449-2.713-2.224
		c0.919-0.798,1.784-2.208,2.766-2.295c7.38-0.653,9.353-2.061,9.42-12.162c0.162-24.116,0.071-48.234,0.044-72.352
		c-0.012-10.772-0.309-11.063-12.556-12.691c1.355-1.77,2.073-3.746,3.254-4.078c6.39-1.797,12.895-3.188,20.072-4.887
		c0,2.015,0.001,3.859,0,5.702c-0.012,29.575-0.049,59.149-0.021,88.724c0.009,9.134,0.353,9.327,9.243,11.698
		c1.264,0.337,2.118,2.212,3.162,3.375C797.638,124.131,797.275,124.561,796.913,124.992z"/>
	<path d="M349.321,343.814c-12.441,0-24.551,0-36.839,0c-1.047-2.919-0.358-4.016,2.809-4.395c8.41-1.008,8.391-1.171,8.391-9.684
		c0.001-12.496-0.225-24.999,0.108-37.486c0.139-5.209-0.796-8.567-6.761-8.723c-0.738-0.019-2.03-1.435-2.006-2.168
		c0.029-0.863,1.063-2.194,1.92-2.448c6.323-1.875,12.711-3.532,19.542-5.384c0,4.974,0,9.823,0,15.681
		c3.416-3.977,5.954-7.345,8.918-10.283c4.135-4.098,9.035-7.177,15.026-4.604c2.204,0.947,4.818,3.589,5.074,5.719
		c0.287,2.39-1.307,5.648-3.133,7.486c-2.263,2.278-4.842,0.93-7.38-1.128c-3.817-3.096-9.95-1.484-13.613,3.78
		c-2.215,3.184-4.354,7.129-4.582,10.851c-0.603,9.814-0.46,19.707-0.005,29.541c0.329,7.112,1.701,8.093,9.01,8.836
		C348.459,339.675,350.996,339.615,349.321,343.814z"/>
	<path d="M459.844,56.277c5.441,0,10.181-0.252,14.869,0.13c1.758,0.143,3.397,1.761,5.09,2.706
		c-1.815,1.207-3.536,3.234-5.465,3.455c-4.5,0.516-9.1,0.165-14.473,0.165c0,3.878,0.001,7.489,0,11.101
		c-0.003,9.856-0.053,19.712,0.003,29.567c0.074,13.249,5.486,16.958,18.195,12.569c0.64-0.221,1.311-0.353,2.822-0.753
		c0,1.754,0.406,4.183-0.061,4.364c-7.114,2.766-13.187,9.793-21.83,6.459c-2.98-1.149-6.354-3.507-7.669-6.222
		c-1.996-4.121-3.13-9.015-3.258-13.619c-0.397-14.218-0.145-28.454-0.145-43.178c-3.926-0.196-7.487-0.375-11.428-0.572
		c1.342-6.657,6.231-6.184,11.349-6.276c-1.423-10.002,3.339-16.408,12.003-22.265C459.844,42.169,459.844,48.822,459.844,56.277z"
		/>
	<path d="M218.452,62.789c-4.412,0-8.21,0-12.085,0c0.874-5.336,0.901-5.352,12.178-7.172c-1.844-7.906,2.066-13.922,7.244-19.332
		c0.798-0.834,2.356-0.942,4.407-1.696c0,7.582,0,14.323,0,21.689c5.327,0,10.043-0.193,14.728,0.109
		c1.557,0.1,3.032,1.468,4.545,2.257c-1.514,1.36-2.916,3.701-4.565,3.892c-4.646,0.536-9.394,0.187-14.326,0.187
		c0,16.245-0.179,31.874,0.105,47.494c0.09,4.922,3.585,7.641,8.486,7.476c3.256-0.109,6.481-1.118,10.111-1.796
		c0.366,0.877,0.869,2.08,1.417,3.39c-2.663,1.562-5.069,2.981-7.483,4.387c-11.887,6.926-24.344,2.906-24.654-14.011
		c-0.248-13.559-0.088-27.126-0.107-40.69C218.45,67.078,218.452,65.183,218.452,62.789z"/>
	<path d="M257.872,63.742c1.726-1.724,2.684-3.498,4.048-3.903c6.183-1.838,12.48-3.29,19.387-5.046
		c0.099,1.781,0.284,3.576,0.286,5.372c0.024,16.527-0.012,33.054,0.031,49.581c0.021,7.923,0.963,8.87,8.38,10.598
		c1.348,0.314,2.367,2.036,3.538,3.108c-0.306,0.427-0.613,0.854-0.919,1.28c-11.364,0-22.728,0-34.092,0
		c-0.359-0.43-0.719-0.86-1.078-1.289c1.221-1.061,2.309-2.798,3.687-3.07c7.58-1.499,9.18-2.913,9.36-10.771
		c0.239-10.368,0.143-20.745,0.122-31.118C270.598,66.85,270.435,66.683,257.872,63.742z"/>
	<path d="M569.827,238.711c-6.357,8.412-12.653,16.872-19.156,25.17c-0.717,0.915-2.612,0.906-3.96,1.325
		c-0.343-1.402-1.356-3.072-0.919-4.161c2.77-6.906,5.831-13.696,8.89-20.482c0.315-0.698,1.193-1.49,1.909-1.601
		c4.234-0.658,8.496-1.127,12.749-1.66C569.502,237.771,569.664,238.241,569.827,238.711z"/>
	<path d="M282.899,32.797c-0.108,4.398-3.795,7.864-8.2,7.707c-3.796-0.135-7.877-4.186-7.894-7.835
		c-0.018-3.863,4.325-8.045,8.308-8.002C279.337,24.714,283.004,28.542,282.899,32.797z"/>
</g>
</svg>
